[0, 0, 0, 0, 1]|0 -4.0
[0, 0, 0, 0, 1]|1 48.5042694599
[0, 0, 0, 0, 1]|2 -2.99999999994
[0, 0, 0, 0, 1]|3 -2.99999999689
[0, 0, 0, 0, 1]|4 49.6552119089
[0, 4, 0, 0, 4]|3 0
[0, 4, 0, 0, 4]|2 -0.9
[0, 4, 0, 0, 4]|1 0
[0, 4, 0, 0, 4]|0 0
[0, 4, 0, 0, 4]|4 0
[0, 2, 1, 0, 0]|4 0
[0, 2, 1, 0, 0]|2 0
[0, 2, 1, 0, 0]|3 0
[0, 2, 1, 0, 0]|0 0
[0, 2, 1, 0, 0]|1 0
[0, 1, 0, 1, 4]|4 0
[0, 1, 0, 1, 4]|3 0
[0, 1, 0, 1, 4]|2 0
[0, 1, 0, 1, 4]|1 0
[0, 1, 0, 1, 4]|0 0
[0, 1, 0, 0, 2]|4 37.8768280201
[0, 1, 0, 0, 2]|0 -3.9446348512
[0, 1, 0, 0, 2]|1 6.25726639695
[0, 1, 0, 0, 2]|2 -2.98575731547
[0, 1, 0, 0, 2]|3 -2.7529371
[0, 0, 1, 0, 4]|4 0
[0, 0, 1, 0, 4]|0 0
[0, 0, 1, 0, 4]|1 0
[0, 0, 1, 0, 4]|2 0
[0, 0, 1, 0, 4]|3 0
[0, 0, 0, 1, 4]|4 0
[0, 0, 0, 1, 4]|2 0
[0, 0, 0, 1, 4]|3 0
[0, 0, 0, 1, 4]|0 0
[0, 0, 0, 1, 4]|1 0
[0, 2, 1, 0, 2]|0 0
[0, 2, 1, 0, 2]|1 0
[0, 2, 1, 0, 2]|2 0
[0, 2, 1, 0, 2]|3 0
[0, 2, 1, 0, 2]|4 0
[0, 2, 1, 0, 1]|1 0
[0, 2, 1, 0, 1]|0 0
[0, 2, 1, 0, 1]|3 0
[0, 2, 1, 0, 1]|2 0
[0, 2, 1, 0, 1]|4 0
[1, 0, 0, 0, 3]|1 0
[1, 0, 0, 0, 3]|0 0
[1, 0, 0, 0, 3]|3 0
[1, 0, 0, 0, 3]|2 0
[1, 0, 0, 0, 3]|4 0
[1, 1, 0, 0, 0]|1 0
[1, 1, 0, 0, 0]|0 0
[1, 1, 0, 0, 0]|3 0
[1, 1, 0, 0, 0]|2 0
[1, 1, 0, 0, 0]|4 0
[1, 4, 0, 0, 2]|3 0
[1, 0, 0, 0, 1]|3 0
[1, 0, 0, 0, 1]|2 0
[1, 0, 0, 0, 1]|1 0
[1, 0, 0, 0, 1]|0 0
[1, 0, 0, 0, 1]|4 0
[0, 0, 1, 0, 1]|3 0
[0, 0, 1, 0, 1]|2 0
[0, 0, 1, 0, 1]|1 0
[0, 0, 1, 0, 1]|0 0
[0, 0, 1, 0, 1]|4 0
[0, 4, 1, 0, 1]|4 0
[0, 4, 1, 0, 1]|3 0
[0, 4, 1, 0, 1]|2 0
[0, 4, 1, 0, 1]|1 0
[0, 4, 1, 0, 1]|0 0
[0, 3, 1, 0, 0]|3 0
[0, 3, 1, 0, 0]|2 0
[0, 3, 1, 0, 0]|1 0
[0, 3, 1, 0, 0]|0 0
[0, 3, 1, 0, 0]|4 0
[0, 2, 0, 1, 2]|4 0
[0, 2, 0, 1, 2]|2 0
[0, 2, 0, 1, 2]|3 0
[0, 2, 0, 1, 2]|0 0
[0, 2, 0, 1, 2]|1 0
[1, 1, 0, 0, 2]|3 0
[1, 1, 0, 0, 2]|2 0
[1, 1, 0, 0, 2]|1 0
[1, 1, 0, 0, 2]|0 0
[1, 1, 0, 0, 2]|4 0
[0, 4, 0, 1, 2]|3 0
[1, 2, 0, 0, 0]|2 0
[1, 2, 0, 0, 0]|3 0
[1, 2, 0, 0, 0]|0 0
[1, 2, 0, 0, 0]|1 0
[0, 4, 0, 0, 0]|3 0
[0, 4, 0, 0, 0]|2 0
[1, 2, 0, 0, 0]|4 0
[0, 4, 0, 0, 0]|0 -2.628
[0, 3, 0, 0, 1]|3 -1.971
[0, 3, 0, 0, 1]|2 -2.2797
[0, 3, 0, 0, 1]|1 6.790395
[0, 3, 0, 0, 1]|0 -2.04
[0, 2, 0, 0, 1]|2 -2.878939179
[0, 2, 0, 0, 1]|3 -2.7529371
[0, 2, 0, 0, 1]|0 -3.6705828
[0, 2, 0, 0, 1]|1 16.0123512617
[0, 3, 0, 0, 3]|1 2.31
[0, 4, 1, 0, 3]|4 0
[0, 3, 0, 0, 3]|3 -0.9
[0, 3, 0, 0, 3]|2 0
[0, 4, 1, 0, 3]|1 0
[0, 4, 1, 0, 3]|0 0
[0, 4, 1, 0, 3]|3 0
[0, 4, 1, 0, 3]|2 0
[0, 2, 0, 1, 0]|0 0
[0, 2, 0, 1, 0]|1 0
[0, 2, 0, 1, 0]|2 0
[0, 2, 0, 1, 0]|3 0
[0, 2, 0, 1, 0]|4 0
[0, 1, 0, 0, 5]|1 0
[0, 1, 0, 0, 5]|0 -1.2
[0, 1, 0, 0, 5]|3 0
[0, 1, 0, 0, 5]|2 -0.9
[0, 1, 0, 0, 5]|4 0
[0, 1, 1, 0, 2]|4 0
[0, 1, 1, 0, 2]|3 0
[0, 1, 1, 0, 2]|2 0
[0, 1, 1, 0, 2]|1 0
[0, 1, 1, 0, 2]|0 0
[0, 1, 1, 0, 0]|4 0
[0, 1, 1, 0, 0]|1 0
[0, 1, 1, 0, 0]|0 0
[0, 1, 1, 0, 0]|3 0
[0, 1, 1, 0, 0]|2 0
[1, 2, 0, 0, 2]|4 0
[1, 2, 0, 0, 2]|0 0
[1, 2, 0, 0, 2]|1 0
[1, 2, 0, 0, 2]|2 0
[1, 2, 0, 0, 2]|3 0
[0, 2, 0, 0, 3]|0 0
[0, 2, 0, 0, 3]|1 2.31
[0, 2, 0, 0, 3]|2 0
[0, 2, 0, 0, 3]|3 0
[0, 2, 0, 0, 3]|4 0
[0, 0, 0, 1, 0]|2 0
[0, 0, 0, 1, 0]|3 0
[0, 0, 0, 1, 0]|0 0
[0, 0, 0, 1, 0]|1 0
[0, 0, 0, 1, 0]|4 0
[0, 1, 0, 1, 0]|2 0
[0, 3, 0, 1, 1]|4 0
[0, 3, 0, 1, 1]|2 0
[0, 3, 0, 1, 1]|3 0
[0, 3, 0, 1, 1]|0 0
[0, 3, 0, 1, 1]|1 0
[0, 1, 0, 1, 0]|4 0
[0, 0, 0, 0, 2]|1 32.2286062284
[0, 0, 0, 0, 2]|0 -3.98670682777
[0, 0, 0, 0, 2]|3 -2.647053
[0, 0, 0, 0, 2]|2 -2.99003012083
[0, 0, 0, 0, 2]|4 32.0234492105
[1, 3, 0, 0, 4]|4 0
[1, 3, 0, 0, 4]|3 0
[1, 3, 0, 0, 4]|2 0
[1, 3, 0, 0, 4]|1 0
[1, 3, 0, 0, 4]|0 0
[0, 0, 0, 1, 2]|4 0
[0, 0, 0, 1, 2]|0 0
[0, 0, 0, 1, 2]|1 0
[0, 0, 0, 1, 2]|2 0
[0, 0, 0, 1, 2]|3 0
[0, 1, 0, 0, 1]|4 51.5277795015
[0, 1, 0, 0, 1]|1 23.734663926
[0, 1, 0, 0, 1]|0 -3.98670682777
[0, 1, 0, 0, 1]|3 -2.99959767941
[0, 1, 0, 0, 1]|2 -2.99996686717
[0, 3, 0, 1, 3]|0 0
[0, 3, 0, 1, 3]|1 0
[0, 3, 0, 1, 3]|2 0
[0, 3, 0, 1, 3]|3 0
[0, 3, 0, 1, 3]|4 0
[0, 0, 0, 0, 0]|3 -3.0
[0, 0, 0, 0, 0]|2 -3.0
[0, 1, 0, 1, 3]|4 0
[0, 0, 0, 0, 0]|0 -4.0
[0, 1, 0, 1, 3]|2 0
[0, 1, 0, 1, 3]|3 0
[0, 1, 0, 1, 3]|0 0
[0, 1, 0, 1, 3]|1 0
[0, 1, 0, 0, 3]|4 23.00493
[0, 1, 0, 0, 3]|3 -1.971
[0, 1, 0, 0, 3]|2 0
[0, 1, 0, 0, 3]|1 0.6
[0, 1, 0, 0, 3]|0 -3.32772
[0, 4, 0, 0, 0]|4 20.08944
[0, 4, 0, 0, 0]|1 0
[0, 1, 0, 1, 1]|0 0
[0, 1, 0, 1, 1]|1 0
[0, 1, 0, 1, 1]|2 0
[0, 1, 0, 1, 1]|3 0
[0, 1, 0, 1, 1]|4 0
[0, 4, 1, 0, 4]|0 0
[0, 4, 1, 0, 4]|1 0
[0, 4, 1, 0, 4]|2 0
[0, 4, 1, 0, 4]|3 0
[0, 4, 1, 0, 4]|4 0
[1, 4, 0, 0, 2]|2 0
[1, 4, 0, 0, 0]|0 0
[1, 4, 0, 0, 2]|0 0
[1, 4, 0, 0, 2]|1 0
[0, 2, 0, 0, 1]|4 23.8076119189
[1, 4, 0, 0, 2]|4 0
[1, 0, 0, 0, 2]|3 0
[1, 0, 0, 0, 2]|0 0
[0, 4, 0, 1, 2]|0 0
[0, 4, 0, 1, 2]|1 0
[0, 4, 0, 1, 2]|2 0
[1, 0, 0, 0, 2]|1 0
[0, 4, 0, 1, 2]|4 0
[0, 3, 0, 0, 1]|4 16.1667
[0, 3, 0, 0, 3]|0 0
[0, 0, 0, 0, 4]|4 0
[0, 0, 0, 0, 4]|3 -0.9
[0, 0, 0, 0, 4]|2 -1.53
[0, 0, 0, 0, 4]|1 0
[0, 0, 0, 0, 4]|0 -2.04
[0, 0, 0, 0, 0]|1 63.9240044881
[0, 3, 0, 0, 3]|4 6.0
[1, 4, 0, 0, 0]|4 0
[1, 0, 0, 0, 2]|4 0
[1, 0, 0, 0, 2]|2 0
[1, 4, 0, 0, 0]|1 0
[1, 4, 0, 0, 0]|2 0
[1, 4, 0, 0, 0]|3 0
[0, 1, 1, 0, 5]|4 0
[0, 1, 1, 0, 5]|2 0
[0, 1, 1, 0, 5]|3 0
[0, 1, 1, 0, 5]|0 0
[0, 1, 1, 0, 5]|1 0
[1, 1, 0, 0, 1]|4 0
[1, 1, 0, 0, 1]|2 0
[1, 1, 0, 0, 1]|3 0
[1, 1, 0, 0, 1]|0 0
[1, 1, 0, 0, 1]|1 0
[0, 0, 0, 0, 0]|4 66.8348726448
[1, 3, 0, 0, 1]|0 0
[1, 3, 0, 0, 1]|1 0
[1, 3, 0, 0, 1]|2 0
[1, 3, 0, 0, 1]|3 0
[1, 3, 0, 0, 1]|4 0
[0, 4, 0, 0, 3]|2 -0.9
[0, 4, 0, 0, 3]|3 -0.9
[0, 4, 0, 0, 3]|0 0
[0, 4, 0, 0, 3]|1 0
[0, 4, 0, 0, 3]|4 6.0
[0, 3, 0, 0, 4]|0 -1.2
[0, 0, 0, 0, 3]|3 -0.9
[0, 3, 0, 0, 4]|2 0
[0, 0, 0, 0, 3]|1 3.927
[1, 0, 0, 0, 0]|0 0
[1, 0, 0, 0, 0]|1 0
[1, 0, 0, 0, 0]|2 0
[1, 0, 0, 0, 0]|3 0
[1, 0, 0, 0, 0]|4 0
[1, 1, 0, 0, 3]|0 0
[1, 1, 0, 0, 3]|1 0
[1, 1, 0, 0, 3]|2 0
[1, 1, 0, 0, 3]|3 0
[1, 1, 0, 0, 3]|4 0
[0, 4, 0, 0, 1]|4 20.1399
[0, 4, 0, 0, 1]|0 0
[0, 4, 0, 0, 1]|1 0
[0, 4, 0, 0, 1]|2 -0.9
[0, 4, 0, 0, 1]|3 0
[0, 3, 1, 0, 1]|0 0
[0, 3, 1, 0, 1]|1 0
[0, 3, 1, 0, 1]|2 0
[0, 3, 1, 0, 1]|3 0
[0, 3, 1, 0, 1]|4 0
[0, 0, 1, 0, 2]|4 0
[0, 0, 1, 0, 2]|2 0
[0, 0, 1, 0, 2]|3 0
[0, 0, 1, 0, 2]|0 0
[0, 0, 1, 0, 2]|1 0
[0, 4, 1, 0, 2]|2 0
[0, 4, 1, 0, 2]|3 0
[0, 4, 1, 0, 2]|0 0
[0, 4, 1, 0, 2]|1 0
[0, 4, 1, 0, 2]|4 0
[0, 2, 0, 1, 1]|3 0
[0, 2, 0, 1, 1]|2 0
[0, 2, 0, 1, 1]|1 0
[0, 2, 0, 1, 1]|0 0
[0, 2, 0, 1, 1]|4 0
[0, 3, 0, 0, 2]|2 -0.9
[1, 0, 0, 0, 4]|1 0
[1, 0, 0, 0, 4]|2 0
[0, 0, 1, 0, 0]|0 0
[0, 0, 1, 0, 0]|1 0
[0, 0, 1, 0, 0]|2 0
[0, 0, 1, 0, 0]|3 0
[0, 0, 1, 0, 0]|4 0
[0, 3, 0, 1, 2]|3 0
[0, 3, 0, 1, 2]|2 0
[0, 3, 0, 1, 2]|1 0
[0, 3, 0, 1, 2]|0 0
[0, 3, 0, 1, 2]|4 0
[1, 0, 0, 0, 4]|4 0
[0, 3, 0, 0, 2]|4 10.2
[1, 0, 0, 0, 4]|0 0
[0, 3, 0, 0, 2]|3 -0.9
[0, 3, 0, 0, 2]|0 0
[0, 3, 0, 0, 2]|1 0.6
[0, 3, 0, 1, 0]|1 0
[0, 3, 0, 1, 0]|0 0
[0, 3, 0, 1, 0]|3 0
[0, 3, 0, 1, 0]|2 0
[0, 3, 0, 1, 0]|4 0
[1, 2, 0, 0, 1]|4 0
[1, 2, 0, 0, 1]|1 0
[1, 2, 0, 0, 1]|0 0
[1, 2, 0, 0, 1]|3 0
[1, 2, 0, 0, 1]|2 0
[1, 1, 0, 0, 5]|2 0
[1, 1, 0, 0, 5]|3 0
[1, 1, 0, 0, 5]|0 0
[1, 1, 0, 0, 5]|1 0
[1, 1, 0, 0, 5]|4 0
[0, 4, 0, 0, 2]|4 10.2
[0, 4, 0, 0, 2]|1 0
[0, 4, 0, 0, 2]|0 -1.2
[0, 4, 0, 0, 2]|3 -0.9
[0, 4, 0, 0, 2]|2 -0.9
[0, 2, 0, 0, 0]|1 15.1506916045
[0, 2, 0, 0, 0]|0 -3.99348634561
[0, 2, 0, 0, 0]|3 -2.878939179
[0, 2, 0, 0, 0]|2 -2.9152574253
[0, 2, 0, 0, 0]|4 40.4666297396
[1, 0, 0, 0, 4]|3 0
[0, 3, 1, 0, 2]|1 0
[0, 3, 1, 0, 2]|0 0
[0, 3, 1, 0, 2]|3 0
[0, 3, 1, 0, 2]|2 0
[0, 3, 1, 0, 2]|4 0
[0, 1, 0, 0, 4]|4 10.2
[0, 1, 0, 0, 4]|2 0
[0, 1, 0, 0, 4]|3 -1.971
[0, 1, 0, 0, 4]|0 0
[0, 1, 0, 0, 4]|1 0
[0, 3, 0, 0, 0]|0 0
[0, 3, 0, 0, 0]|1 13.0978172025
[0, 3, 0, 0, 0]|2 -0.9
[0, 3, 0, 0, 0]|3 -1.971
[0, 3, 0, 0, 0]|4 14.352735
[0, 1, 1, 0, 1]|2 0
[0, 1, 1, 0, 1]|3 0
[0, 1, 1, 0, 1]|0 0
[0, 1, 1, 0, 1]|1 0
[0, 1, 1, 0, 1]|4 0
[0, 1, 0, 1, 2]|1 0
[0, 1, 0, 1, 2]|0 0
[0, 1, 0, 1, 2]|3 0
[0, 1, 0, 1, 2]|2 0
[0, 1, 0, 1, 2]|4 0
[0, 2, 0, 0, 2]|3 -2.7529371
[0, 2, 0, 0, 2]|2 -2.647053
[0, 2, 0, 0, 2]|1 5.124
[0, 2, 0, 0, 2]|0 -2.628
[0, 2, 0, 0, 2]|4 0
[0, 0, 0, 1, 3]|4 0
[0, 0, 0, 1, 3]|3 0
[0, 0, 0, 1, 3]|2 0
[0, 0, 0, 1, 3]|1 0
[0, 0, 0, 1, 3]|0 0
[0, 1, 0, 1, 0]|3 0
[0, 0, 0, 1, 1]|4 0
[0, 1, 0, 1, 0]|1 0
[0, 1, 0, 1, 0]|0 0
[0, 0, 0, 1, 1]|1 0
[0, 0, 0, 1, 1]|0 0
[0, 0, 0, 1, 1]|3 0
[0, 0, 0, 1, 1]|2 0
[0, 3, 0, 0, 4]|4 0
[0, 0, 0, 0, 3]|4 16.6386
[0, 0, 0, 0, 3]|2 0
[0, 3, 0, 0, 4]|1 0
[0, 0, 0, 0, 3]|0 -2.628
[0, 3, 0, 0, 4]|3 0
[0, 4, 0, 1, 3]|3 0
[0, 4, 0, 1, 3]|2 0
[0, 4, 0, 1, 3]|1 0
[0, 4, 0, 1, 3]|0 0
[0, 4, 0, 1, 3]|4 0
[0, 1, 0, 0, 0]|2 -3.0
[0, 1, 0, 0, 0]|3 -2.99999999998
[0, 1, 0, 0, 0]|0 -3.99999999998
[0, 1, 0, 0, 0]|1 39.7086375192
[0, 1, 0, 0, 0]|4 66.2769748608
